…
rstan_options (auto_write=TRUE)
options (mc.cores=parallel::detectCores ()) # Run on multiple cores

data(reedfrogs)
d <- reedfrogs
d$tank <- 1:NROW(d)
d %>% as.tibble()
```

```
## # A tibble: 48 x 6
##    density   pred   size  surv propsurv  tank
##      <int> <fctr> <fctr> <int>    <dbl> <int>
##  1      10     no    big     9      0.9     1
##  2      10     no    big    10      1.0     2
##  3      10     no    big     7      0.7     3
##  4      10     no    big    10      1.0     4
##  5      10     no  small     9      0.9     5
##  6      10     no  small     9      0.9     6
##  7      10     no  small    10      1.0     7
##  8      10     no  small     9      0.9     8
##  9      10   pred    big     4      0.4     9
## 10      10   pred    big     9      0.9    10
## # ... with 38 more rows
```
…
## Multilevel chimps

Next we return to the chimp data and consider multiple cluster types.


```r
data("chimpanzees")
d <- chimpanzees
d$recipient <- NULL
d %>% as.tibble()
```

```
## # A tibble: 504 x 7
##    actor condition block trial prosoc_left chose_prosoc pulled_left
##    <int>     <int> <int> <int>       <int>        <int>       <int>
##  1     1         0     1     2           0            1           0
##  2     1         0     1     4           0            0           1
##  3     1         0     1     6           1            0           0
##  4     1         0     1     8           0            1           0
##  5     1         0     1    10           1            1           1
##  6     1         0     1    12           1            1           1
##  7     1         0     2    14           1            0           0
##  8     1         0     2    16           1            0           0
##  9     1         0     2    18           0            1           0
## 10     1         0     2    20           0            1           0
## # ... with 494 more rows
```
…
